Ds202_Lab4:Tidying and Joining
…
off1<-offense%>%mutate_at(vars(Receiving_REC, Receiving_YDS, Receiving_TD, Rushing_ATT, Rushing_YDS, Rushing_TD,`Passing_CMP-ATT`, Passing_YDS, Passing_TD, Passing_INT), funs(as.numeric))

## Warning: NAs introduced by coercion

bio1<-bio%>%mutate_at(vars(Weight),funs(as.numeric))

3.Separate the Height column into two columns. Make sure the newly created columns are numeric. Then create one column that represents Height (Hint: Use a unit that works well). Drop any irrelavant columns from this process.

#3
bio1<-bio%>%separate(Height,c("feet","inch"))
bio1

## # A tibble: 123 x 8
##    Name      Position   feet  inch  Weight Class     Hometown    Highschool
##    <fct>     <chr>      <chr> <chr> <chr>  <chr>     <chr>       <chr>     
##  1 Akers, L~ Wide Rece~ 6     0     192    Redshirt~ Cedar Rapi~ Washington
##  2 Allen, C~ Tight End  6     7     240    Redshirt~ Nixa, Mo.   Nixa      
##  3 Alt, Ger~ Offensive~ 6     2     290    Redshirt~ Cedar Rapi~ Washington
##  4 Anderson~ Tight End  6     4     250    Redshirt~ League Cit~ Clear Fal~
##  5 Assalley~ Placekick~ 6     0     191    Redshirt~ Naperville~ Central   
##  6 Austin, ~ Linebacker 5     11    205    Redshirt~ Walnut, Ca~ Bishop Am~
##  7 Azunna, ~ Defensive~ 6     0     192    Redshirt~ Grand Prai~ Lake Ridge
##  8 Bailey, ~ Defensive~ 6     3     224    Redshirt~ Clarksdale~ Clarksdale
##  9 Bailey, ~ Defensive~ 6     2     251    Junior    Jacksonvil~ Raines    
## 10 Bailey, ~ Defensive~ 6     2     284    Redshirt~ Jacksonvil~ Raines    
## # ... with 113 more rows
…
4.By cleaning the three data frames in R, at the end of this step you should have the following three clean data frames: defClean, offClean, and bioClean. Print the structures of these data frames. Make sure your data types make sense for each variable.

#4
defClean<-def1
offClean<-off1
bioClean<-bio1
bioClean

## # A tibble: 123 x 7
##    Name        Position    Weight Class      Hometown     Highschool Height
##    <fct>       <chr>       <chr>  <chr>      <chr>        <chr>       <dbl>
##  1 Akers, Lan~ Wide Recei~ 192    Redshirt ~ Cedar Rapid~ Washington     72
##  2 Allen, Cha~ Tight End   240    Redshirt ~ Nixa, Mo.    Nixa           79
##  3 Alt, Gerry  Offensive ~ 290    Redshirt ~ Cedar Rapid~ Washington     74
##  4 Anderson, ~ Tight End   250    Redshirt ~ League City~ Clear Fal~     76
##  5 Assalley, ~ Placekicker 191    Redshirt ~ Naperville,~ Central        72
##  6 Austin, Aa~ Linebacker  205    Redshirt ~ Walnut, Cal~ Bishop Am~     71
##  7 Azunna, Ar~ Defensive ~ 192    Redshirt ~ Grand Prair~ Lake Ridge     72
##  8 Bailey, Co~ Defensive ~ 224    Redshirt ~ Clarksdale,~ Clarksdale     75
##  9 Bailey, Ja~ Defensive ~ 251    Junior     Jacksonvill~ Raines         74
## 10 Bailey, Jo~ Defensive ~ 284    Redshirt ~ Jacksonvill~ Raines         74
## # ... with 113 more rows
…
Part two: Tidying (B)

Now lets turn our attention to the player biography bioClean.

Separate the Hometown column into two columns, namely the city and the state. Print the first few rows of these two columns. (Hint: look at the sep= argument of separate)

bio2<-bioClean%>%separate(Hometown,c("city","state"),sep=",")
bio2%>% has_name("inch")

## [1] FALSE

bio2

## # A tibble: 123 x 8
##    Name       Position   Weight Class      city    state  Highschool Height
##    <fct>      <chr>      <chr>  <chr>      <chr>   <chr>  <chr>       <dbl>
##  1 Akers, La~ Wide Rece~ 192    Redshirt ~ Cedar ~ " Iow~ Washington     72
##  2 Allen, Ch~ Tight End  240    Redshirt ~ Nixa    " Mo." Nixa           79
##  3 Alt, Gerry Offensive~ 290    Redshirt ~ Cedar ~ " Iow~ Washington     74
##  4 Anderson,~ Tight End  250    Redshirt ~ League~ " Tex~ Clear Fal~     76
##  5 Assalley,~ Placekick~ 191    Redshirt ~ Naperv~ " Ill~ Central        72
##  6 Austin, A~ Linebacker 205    Redshirt ~ Walnut  " Cal~ Bishop Am~     71
##  7 Azunna, A~ Defensive~ 192    Redshirt ~ Grand ~ " Tex~ Lake Ridge     72
##  8 Bailey, C~ Defensive~ 224    Redshirt ~ Clarks~ " Mis~ Clarksdale     75
##  9 Bailey, J~ Defensive~ 251    Junior     Jackso~ " Fla~ Raines         74
## 10 Bailey, J~ Defensive~ 284    Redshirt ~ Jackso~ " Fla~ Raines         74
## # ... with 113 more rows
…
Part three: Joining data frames

Find out where the offensive players are from by joining the offensive data and player biography data appropriately.

df<-inner_join(bio2,offClean,by="Name")

## Warning: Column `Name` joining factors with different levels, coercing to
## character vector

df

## # A tibble: 163 x 19
##    Name  Position Weight Class city  state Highschool Height
##    <chr> <chr>    <chr>  <chr> <chr> <chr> <chr>       <dbl>
##  1 Aker~ Wide Re~ 192    Reds~ Ceda~ " Io~ Washington     72
##  2 Aker~ Wide Re~ 192    Reds~ Ceda~ " Io~ Washington     72
##  3 Aker~ Wide Re~ 192    Reds~ Ceda~ " Io~ Washington     72
##  4 Aker~ Wide Re~ 192    Reds~ Ceda~ " Io~ Washington     72
##  5 Aker~ Wide Re~ 192    Reds~ Ceda~ " Io~ Washington     72
##  6 Aker~ Wide Re~ 192    Reds~ Ceda~ " Io~ Washington     72
##  7 Aker~ Wide Re~ 192    Reds~ Ceda~ " Io~ Washington     72
##  8 Aker~ Wide Re~ 192    Reds~ Ceda~ " Io~ Washington     72
##  9 Aker~ Wide Re~ 192    Reds~ Ceda~ " Io~ Washington     72
## 10 Aker~ Wide Re~ 192    Reds~ Ceda~ " Io~ Washington     72
## # ... with 153 more rows, and 11 more variables: Opponent_Opponent <fct>,
## #   Receiving_REC <dbl>, Receiving_YDS <dbl>, Receiving_TD <dbl>,
## #   Rushing_ATT <dbl>, Rushing_YDS <dbl>, Rushing_TD <dbl>,
## #   `Passing_CMP-ATT` <dbl>, Passing_YDS <dbl>, Passing_TD <dbl>,
## #   Passing_INT <dbl>
…
